{
  "dev": {
    "awscloudformation": {
      "AuthRoleName": "amplify-demopr-dev-155552-authRole",
      "UnauthRoleArn": "arn:aws:iam::037495631109:role/amplify-demopr-dev-155552-unauthRole",
      "AuthRoleArn": "arn:aws:iam::037495631109:role/amplify-demopr-dev-155552-authRole",
      "Region": "eu-west-1",
      "DeploymentBucketName": "amplify-demopr-dev-155552-deployment",
      "UnauthRoleName": "amplify-demopr-dev-155552-unauthRole",
      "StackName": "amplify-demopr-dev-155552",
      "StackId": "arn:aws:cloudformation:eu-west-1:037495631109:stack/amplify-demopr-dev-155552/da7b79c0-4307-11ec-ad24-022da0890455",
      "AmplifyAppId": "d1trpx4rys5ii5"
    }
  }
}